        -:    0:Source:main.c
        -:    0:Graph:main.gcno
        -:    0:Data:main.gcda
        -:    0:Runs:1
        -:    0:Programs:1
        -:    1:#include <stdlib.h>
        -:    2:#include <string.h>
        -:    3:#include "book.h"
        -:    4:
function main called 1 returned 100% blocks executed 100%
        1:    5:int main(){
        1:    5-block  0
        1:    6:  newRecipe("cool beans", 12);
        1:    6-block  0
call    0 returned 1
        1:    7:  newRecipe("very cool beans", 24);    
call    0 returned 1
unconditional  1 taken 1
        -:    8:}
